Cyclistic bike-share analysis case study
…
Count the exact number of number_of_rides by trip_hour - member
type

## `summarise()` has grouped output by 'member_casual'. You can override using the
## `.groups` argument.

## # A tibble: 48 x 3
## # Groups:   member_casual [2]
##    member_casual trip_hour count
##    <chr>         <chr>     <int>
##  1 casual        00        54215
##  2 casual        01        39531
##  3 casual        02        25785
##  4 casual        03        14161
##  5 casual        04        10016
##  6 casual        05        12679
##  7 casual        06        25976
##  8 casual        07        47194
##  9 casual        08        64083
## 10 casual        09        76695
## # ... with 38 more rows
…
Count the exact number of average_durations by trip_hour - member
type

## `summarise()` has grouped output by 'member_casual'. You can override using the
## `.groups` argument.

## # A tibble: 48 x 3
## # Groups:   member_casual [2]
##    member_casual trip_hour ride_length_min
##    <chr>         <chr>               <dbl>
##  1 casual        00                   31.1
##  2 casual        01                   34.3
##  3 casual        02                   37.6
##  4 casual        03                   37.9
##  5 casual        04                   38.6
##  6 casual        05                   21.6
##  7 casual        06                   19.6
##  8 casual        07                   20.2
##  9 casual        08                   22.6
## 10 casual        09                   27.2
## # ... with 38 more rows
…
Count the exact number of average_durations

## `summarise()` has grouped output by 'member_casual', 'day_of_Week'. You can
## override using the `.groups` argument.

## # A tibble: 336 x 4
## # Groups:   member_casual, day_of_Week [14]
##    member_casual day_of_Week trip_hour count
##    <chr>         <ord>       <chr>     <int>
##  1 casual        Monday      00         3126
##  2 casual        Monday      01         1848
##  3 casual        Monday      02         1084
##  4 casual        Monday      03          709
##  5 casual        Monday      04          761
##  6 casual        Monday      05         1749
##  7 casual        Monday      06         4219
##  8 casual        Monday      07         6850
##  9 casual        Monday      08         8655
## 10 casual        Monday      09         8705
## # ... with 326 more rows
…
Count the exact number of rides by month and member type

## `summarise()` has grouped output by 'member_casual'. You can override using the
## `.groups` argument.

## # A tibble: 24 x 3
## # Groups:   member_casual [2]
##    member_casual month  count
##    <chr>         <chr>  <int>
##  1 casual        01     35898
##  2 casual        02     10083
##  3 casual        03     83968
##  4 casual        04    136804
##  5 casual        05    256448
##  6 casual        06    370406
##  7 casual        07    443063
##  8 casual        08    410428
##  9 casual        09    363520
## 10 casual        10    256545
## # ... with 14 more rows
…
Count the exact number of average_durations by month and member
type

## `summarise()` has grouped output by 'member_casual'. You can override using the
## `.groups` argument.

## # A tibble: 24 x 3
## # Groups:   member_casual [2]
##    member_casual month total_duration
##    <chr>         <chr>          <dbl>
##  1 casual        01            835340
##  2 casual        02            447742
##  3 casual        03           3095822
##  4 casual        04           5006144
##  5 casual        05           9484143
##  6 casual        06          13199758
##  7 casual        07          13932806
##  8 casual        08          11236005
##  9 casual        09           9696021
## 10 casual        10           6198340
## # ... with 14 more rows
…
